url_source,company_name,cui_no,person,no_of_emp,setup_year,reg_no,district,industry,CAEN,director,website,mail,street,town,town_area,block,scale,apartment,mobile,phone,fax,country_id,2009_turnover,2009_total_asset,2009_profit,2009_debt
http://www.828.ro/Company/i-contacrist-srl-25878245,I - CONTACRIST SRL,25878245,,1,2009,,Timis,Activitati de contabilitate si audit financiar (CAEN: 6920),6920,,,,Str. GENERAL GHEORGHE STAVRESCU,MUNICIPIUL TIMISOARA,0,,,CAMERA 1,0730-632360,0730-632360,,181,18 220 RON,4 373 RON,4 720 RON,#NAME?
http://www.828.ro/Company/i-i-umanitate-srl-24874628,I & I UMANITATE SRL,24874628,TANASIE MARIETA,0,2008,J29/3393/2008,Prahova,Alte forme de invatamant n.c.a. (CAEN: 8559),8559,,,,Str. MIHAIL KOGALNICEANU,MUNICIPIUL PLOIESTI,0,,,1,0749-945769,0749-945769,,181,14 359 RON,3 650 RON,3 650 RON,#NAME?
http://www.828.ro/Company/i-c-p-e-sa-423140,I C P E SA,423140,LASCU NICUSOR,352,1992,J40/21438/1992,Bucuresti,Cercetare-dezvoltare in alte stiinte naturale si inginerie (CAEN: 7219),7219,General manager: RACICOVSCHI DAN VIRGIL,http://www.citicpe.ro,office@icpe.ro,Splaiul UNIRII,BUCURESTI SECTORUL 3,3,,,,0744-999327,021-5893300|021-3467207,021-5893480,181,22 331 605 RON,10 495 211 RON,505 480 RON,#NAME?
http://www.828.ro/Company/i-dental-2003-srl-15151680,I - DENTAL 2003 SRL,15151680,SLUJITORU ILEANA,3,2003,J40/993/2003,Bucuresti,Activitati de asistenta stomatologica (CAEN: 8623),8623,,,,Str. NADES,BUCURESTI SECTORUL 1,1,,,,0723-507164,0723-507164,,181,102 263 RON,80 285 RON,7 057 RON,13 611 RON
http://www.828.ro/Company/i-j-international-srl-11558429,I & J INTERNATIONAL SRL,11558429,IKEDA SHIGEO,1,1999,J40/1430/1999,Bucuresti,Coafura si alte activitati de infrumusetare (CAEN: 9602),9602,,,,Str. CALEA FLOREASCA,BUCURESTI SECTORUL 1,1,"F1, TRS. 2",,13,0722-317624,0722-317624,,181,#NAME?,,,917 RON
http://www.828.ro/Company/i-c-s-romanesti-constantin-snc-2701243,I C S ROMANESTI CONSTANTIN SNC,2701243,CONSTANTIN IULIAN,0,1992,J29/2145/1992,Prahova,Intretinerea si repararea autovehiculelor (CAEN: 4520),4520,,,,Str. COVURLUI,MUNICIPIUL PLOIESTI,0,,,,,,,181,#NAME?,11 893 RON,1 373 RON,#NAME?
http://www.828.ro/Company/i-g-euro-eggs-srl-25580906,I - G EURO EGGS SRL,25580906,DOBRE GEORGE,0,2009,J15/376/2009,Dambovita,Cresterea pasarilor (CAEN: 147),147,,,,"SAT SALCUTA, DN 7",ORAS TITU,0,,,,0723-891322,0723-891322,,181,#NAME?,260 RON,72 RON,#NAME?
http://www.828.ro/Company/i-k-marketing-srl-7602992,I & K MARKETING SRL,7602992,APAHIDEAN ANGELA,1,1995,J12/1526/1995,Cluj,"Comert cu amanuntul in magazine nespecializate, cu vanzare predominanta de produse alimentare, bauturi si tutun (CAEN: 4711)",4711,,,,,"SAT LIVADA, COMUNA ICLOD",0,,,,0740-632348,0740-632348,,181,63 882 RON,24 367 RON,,3 472 RON
http://www.828.ro/Company/i-c-s-srl-16222844,I C S SRL,16222844,TONT OCTAVIAN,1,2004,J21/103/2004,Ialomita,Comert cu amanuntul al echipamentului pentru telecomunicatii in magazine specializate (CAEN: 4742),4742,,,,Str. Ardealului,MUNICIPIUL SLOBOZIA,0,4,C,11,,0243-231944,,181,34 062 RON,19 363 RON,,1 783 RON
http://www.828.ro/Company/i-intermed-consult-srl-15302880,I - INTERMED CONSULT SRL,15302880,OANCEA LIVIU,1,2003,J32/362/2003,Sibiu,Activitati de consultanta pentru afaceri si management (CAEN: 7022),7022,,,,Str. SPITALULUI,ORAS AGNITA,0,,A,6,,0269-512082,,181,11 060 RON,7 554 RON,6 270 RON,#NAME?
http://www.828.ro/Company/i-l-inox-design-srl-24848165,I & L INOX DESIGN SRL,24848165,,0,2008,,Cluj,Fabricarea articolelor din fire metalice (CAEN: 2593),2593,,,,Str. REPUBLICII,MUNICIPIUL CAMPIA TURZII,0,,,,0746-923357,0746-923357,,181,#NAME?,,,#NAME?
http://www.828.ro/Company/i-c-u-international-services-srl-3579064,I C U INTERNATIONAL SERVICES SRL,3579064,STYLIANI KOSTOPOULOU,1,1992,J40/12674/1992,Bucuresti,Dezvoltare (promovare) imobiliara (CAEN: 4110),4110,,,,B-dul UNIRII,BUCURESTI SECTORUL 5,5,3,1,23,,021-3168616,,181,48 999 RON,85 049 RON,108 004 RON,#NAME?
http://www.828.ro/Company/i-magio-srl-24587124,I - MAGIO SRL,24587124,KIS TIBOR,1,2008,J35/3602/2008,Timis,Activitati ale agentiilor de publicitate (CAEN: 7311),7311,,,,Str. NERA,MUNICIPIUL TIMISOARA,0,,,,0746-136607|0727-135225,0746-136607,,181,22 390 RON,,,#NAME?
http://www.828.ro/Company/i-l-spa-dorobantu-srl-25387833,I & L SPA DOROBANTU SRL,25387833,,1,2009,,Calarasi,Activitati de intretinere corporala (CAEN: 9604),9604,,,,,"SAT DOROBANTU, COMUNA DOROBANTU",0,,,,0720-108417,0720-108417,,181,#NAME?,,,#NAME?
http://www.828.ro/Company/i-care-optic-serv-focus-srl-24740073,I CARE OPTIC SERV FOCUS SRL,24740073,BENGUS CRISTIAN DAN,0,2008,J40/19289/2008,Bucuresti,Activitati de asistenta medicala specializata (CAEN: 8622),8622,,,,Str. Serghiescu Marin,BUCURESTI SECTORUL 2,2,,,"5,camera 1",0722-819777,0722-819777,,181,323 206 RON,,,113 438 RON
http://www.828.ro/Company/i-a-business-design-srl-17810478,I & A BUSINESS DESIGN SRL,17810478,GRIGORE IULIAN,0,2005,J40/12977/2005,Bucuresti,Alte activitati de servicii suport pentru intreprinderi n.c.a. (CAEN: 8299),8299,,,,Str. HerTa (fostA SAniuTei),BUCURESTI SECTORUL 2,2,B17,A,7,,,,181,#NAME?,200 RON,#NAME?,#NAME?
http://www.828.ro/Company/i-m-chic-srl-15621804,I & M CHIC SRL,15621804,GAVRIL MIRUNA IRINA,1,2003,J52/285/2003,Giurgiu,Activitati de consultanta pentru afaceri si management (CAEN: 7022),7022,,,,Sos. BUCURESTI,MUNICIPIUL GIURGIU,0,102,A,20,,0246-214697,,181,34 287 RON,52 872 RON,2 943 RON,#NAME?
http://www.828.ro/Company/i-care-optic-serv-srl-21999597,I CARE OPTIC SERV SRL,21999597,BENGUS CRISTIAN DAN,1,2007,J40/12250/2007,Bucuresti,Activitati de asistenta medicala specializata (CAEN: 8622),8622,,,,Str. GrAdiºtea,BUCURESTI SECTORUL 4,4,101,2,21,0722-819777,0722-819777,,181,173 860 RON,,,8 863 RON
http://www.828.ro/Company/i-a-com-srl-11715191,I & A COM SRL,11715191,CIMPOCA IOAN,1,1999,J32/225/1999,Sibiu,"Comert cu amanuntul in magazine nespecializate, cu vanzare predominanta de produse nealimentare (CAEN: 4719)",4719,,,,Str. ALEEA SEVIS,MUNICIPIUL SIBIU,0,,,11,,0269-422635,,181,19 154 RON,4 298 RON,,#NAME?
