company_name,contact,position,subdomain0,country,website,email,rating,rating_vals,vote_vals
ANHUI Province Construct Bureau,Urmila,Vicepresident,98000,GBR,http://www.alic.com.cn,wansn1@wansn.com.cn,1111,2222,3333
1ANHUI Province Construct Bureau,Urmila1,Vicepresident1,98001,GBR,http://www.alic.com.cn,wansn2@wansn.com.cn,1111,2222,3333
2ANHUI Province Construct Bureau,Urmila2,Vicepresident2,98002,GBR,http://www.alic.com.cn,wansn3@wansn.com.cn,1111,2222,3333
3ANHUI Province Construct Bureau,Urmila3,Vicepresident3,98003,GBR,http://www.alic.com.cn,wansn4@wansn.com.cn,1111,2222,3333
4ANHUI Province Construct Bureau,Urmila4,Vicepresident4,98004,GBR,http://www.alic.com.cn,wansn5@wansn.com.cn,1111,2222,3333
5ANHUI Province Construct Bureau,Urmila5,Vicepresident5,98005,GBR,http://www.alic.com.cn,wansn6@wansn.com.cn,1111,2222,3333
6ANHUI Province Construct Bureau,Urmila6,Vicepresident6,98006,GBR,http://www.alic.com.cn,wansn7@wansn.com.cn,1111,2222,3333
7ANHUI Province Construct Bureau,Urmila7,Vicepresident7,98007,GBR,http://www.alic.com.cn,wansn8@wansn.com.cn,1111,2222,3333
8ANHUI Province Construct Bureau,Urmila8,Vicepresident8,98008,GBR,http://www.alic.com.cn,wansn9@wansn.com.cn,1111,2222,3333
